CDC Data Exercise – MADA Portfolio
…
cat_vars <- c("state", "sex", "age_group", "value_type", "unit")

for (v in cat_vars) {
  print(v)
  print(
    dat %>%
      count(.data[[v]], sort = TRUE) %>%
      mutate(pct = n / sum(n))
  )
  cat("\n\n")
}

[1] "state"
# A tibble: 55 × 3
   state     n    pct
   <chr> <int>  <dbl>
 1 US     2013 0.0206
 2 WA     1975 0.0202
 3 MD     1934 0.0198
 4 CA     1929 0.0198
 5 CO     1925 0.0197
 6 AZ     1922 0.0197
 7 MN     1909 0.0195
 8 OH     1904 0.0195
 9 TX     1900 0.0195
10 KS     1899 0.0194
# ℹ 45 more rows
…
